<?xml version="1.0" encoding="UTF-8" standalone="no"?>
<!-- Created with Inkscape (http://www.inkscape.org/) -->

<svg
   xmlns:dc="http://purl.org/dc/elements/1.1/"
   xmlns:cc="http://creativecommons.org/ns#"
   xmlns:rdf="http://www.w3.org/1999/02/22-rdf-syntax-ns#"
   xmlns:svg="http://www.w3.org/2000/svg"
   xmlns="http://www.w3.org/2000/svg"
   version="1.1"
   width="765"
   height="990"
   id="svg2">
  <defs
     id="defs4" />
  <metadata
     id="metadata7">
    <rdf:RDF>
      <cc:Work
         rdf:about="">
        <dc:format>image/svg+xml</dc:format>
        <dc:type
           rdf:resource="http://purl.org/dc/dcmitype/StillImage" />
        <dc:title></dc:title>
      </cc:Work>
    </rdf:RDF>
  </metadata>
  <g
     transform="translate(0,-62.362183)"
     id="layer1">
    <path
       d="m 715.71426,537.85712 a 279.28571,279.28571 0 1 1 -558.57141,0 279.28571,279.28571 0 1 1 558.57141,0 z"
       transform="matrix(1.2826492,0,0,1.2826492,-177.28474,-132.51982)"
       id="path3005"
       style="fill:none;stroke:#ffffff;stroke-width:2.76681209;stroke-linecap:butt;stroke-linejoin:miter;stroke-miterlimit:4;stroke-opacity:1;stroke-dasharray:none" />
    <g
       id="g3777">
      <path
         d="m 715.71426,537.85712 a 279.28571,279.28571 0 1 1 -558.57141,0 279.28571,279.28571 0 1 1 558.57141,0 z"
         transform="matrix(0.4249347,0,0,0.4249347,197.04636,328.80802)"
         id="path3003"
         style="fill:#ff0000;fill-rule:evenodd;stroke:none" />
      <path
         d="m 715.71426,537.85712 a 279.28571,279.28571 0 1 1 -558.57141,0 279.28571,279.28571 0 1 1 558.57141,0 z"
         transform="matrix(0.2513228,0,0,0.2513228,272.81555,167.62797)"
         id="path3775"
         style="fill:#ff0000;fill-rule:evenodd;stroke:none" />
    </g>
  </g>
</svg>
